…
Question 3: What is the age of single family homes in each neighborhood?
------------------------------------------------------------------------

``` r
syr.age <- mutate(dat, age= 2017- as.numeric(as.character(YearBuilt)))
syr.group<- group_by(syr.age, Nhood)
summarise(syr.group, "10th" = quantile(na.omit(age), .1), "25th" = quantile(na.omit(age), .25), "50th" = quantile(na.omit(age), .50), "75th" = quantile(na.omit(age), .75), "90th" = quantile(na.omit(age), .90))
```

    ## # A tibble: 33 × 6
    ##              Nhood `10th` `25th` `50th` `75th` `90th`
    ##             <fctr>  <dbl>  <dbl>  <dbl>  <dbl>  <dbl>
    ## 1         Brighton   62.0  87.00   97.0    107  117.0
    ## 2   Court-Woodlawn   64.0  77.00   89.0     97  117.0
    ## 3         Downtown   37.0  57.00   87.0    117 2017.0
    ## 4         Eastwood   61.0  74.00   88.0     97  107.0
    ## 5          Elmwood   62.0  82.00   90.0    102  117.0
    ## 6     Far Westside   67.0  92.00  107.0    117  127.0
    ## 7  Franklin Square   27.0  37.00   67.0     87  114.6
    ## 8     Hawley-Green   57.0  77.00  111.0    127  167.0
    ## 9        Lakefront   32.1  56.75   67.0    117 2017.0
    ## 10    Lincoln Hill   52.0  87.00   99.5    117  137.0
    ## # ... with 23 more rows
…
